…
3. Calculate and report the mean and median of the total number of steps taken per day

```r
   summarize(days, The_mean = mean(steps, na.rm = TRUE),The_Median=median(steps, na.rm = TRUE))
```

```
## # A tibble: 53 × 3
##          date The_mean The_Median
##        <fctr>    <dbl>      <dbl>
## 1  2012-10-02  0.43750          0
## 2  2012-10-03 39.41667          0
## 3  2012-10-04 42.06944          0
## 4  2012-10-05 46.15972          0
## 5  2012-10-06 53.54167          0
## 6  2012-10-07 38.24653          0
## 7  2012-10-09 44.48264          0
## 8  2012-10-10 34.37500          0
## 9  2012-10-11 35.77778          0
## 10 2012-10-12 60.35417          0
## # ... with 43 more rows
```
…
